<svg width="15" height="13" viewBox="0 0 15 13" xmlns="http://www.w3.org/2000/svg">
<path d="M13.5747 2.21L13.5747 12.35C13.5747 12.7075 13.2692 13 12.8959 13C12.5226 13 12.2172 12.7075 12.2172 12.35L12.2172 2.21L11.9457 2.47C11.6742 2.73 11.267 2.73 10.9955 2.47C10.724 2.21 10.724 1.82 10.9955 1.56L12.4208 0.195C12.5566 0.0649997 12.7602 1.61856e-07 12.9638 1.79657e-07C13.1335 1.94491e-07 13.2692 0.0649998 13.371 0.195L14.7964 1.56C15.0679 1.82 15.0679 2.21 14.7964 2.47C14.5249 2.73 14.1176 2.73 13.8462 2.47L13.5747 2.21ZM5.68248e-08 12.35C2.55712e-08 12.7075 0.30543 13 0.678733 13L9.50226 13C9.87556 13 10.181 12.7075 10.181 12.35C10.181 11.9925 9.87556 11.7 9.50226 11.7L0.678733 11.7C0.30543 11.7 8.80785e-08 11.9925 5.68248e-08 12.35ZM3.97774e-07 8.45C3.6652e-07 8.8075 0.30543 9.1 0.678733 9.1L8.1448 9.1C8.5181 9.1 8.82353 8.8075 8.82353 8.45C8.82353 8.0925 8.5181 7.8 8.1448 7.8L0.678733 7.8C0.30543 7.8 4.29027e-07 8.0925 3.97774e-07 8.45ZM7.38723e-07 4.55C7.07469e-07 4.9075 0.30543 5.2 0.678734 5.2L6.78733 5.2C7.16063 5.2 7.46606 4.9075 7.46606 4.55C7.46606 4.1925 7.16063 3.9 6.78733 3.9L0.678734 3.9C0.305431 3.9 7.69976e-07 4.1925 7.38723e-07 4.55ZM1.07967e-06 0.65C1.04842e-06 1.0075 0.305431 1.3 0.678734 1.3L4.75113 1.3C5.12443 1.3 5.42986 1.0075 5.42986 0.65C5.42986 0.2925 5.12443 -5.05682e-07 4.75113 -5.38317e-07L0.678734 -8.94338e-07C0.305431 -9.26973e-07 1.11092e-06 0.2925 1.07967e-06 0.65Z"/>
</svg>
