<?xml version="1.0" standalone="no"?>
<!DOCTYPE svg PUBLIC "-//W3C//DTD SVG 1.1//EN" "http://www.w3.org/Graphics/SVG/1.1/DTD/svg11.dtd" >
<svg xmlns="http://www.w3.org/2000/svg">
<metadata>Generated by IcoMoon</metadata>
<defs>
<font id="icomoon" horiz-adv-x="1024">
<font-face units-per-em="1024" ascent="960" descent="-64" />
<missing-glyph horiz-adv-x="1024" />
<glyph unicode="&#x20;" horiz-adv-x="512" d="" />
<glyph unicode="&#xe900;" glyph-name="chevron-small-left" horiz-adv-x="614" d="M568.517-39.595c-31.167-28.767-79.755-26.822-108.525 4.341l-378.093 409.6c-27.156 29.42-27.156 74.765 0 104.184l378.093 409.6c28.769 31.167 77.357 33.111 108.525 4.341 31.166-28.769 33.11-77.358 4.341-108.525l-330.008-357.508 330.008-357.508c28.769-31.166 26.826-79.755-4.341-108.525z" />
<glyph unicode="&#xe901;" glyph-name="star" horiz-adv-x="1084" d="M542.118 960l121.711-374.594h393.873l-318.651-231.511 121.717-374.597-318.651 231.514-318.649-231.514 121.713 374.597-318.649 231.511h393.871l121.713 374.594z" />
<glyph unicode="&#xe902;" glyph-name="edit" horiz-adv-x="1152" d="M1132.026 741.742c-4.55 5.121-9.677 9.816-14.515 14.795-24.333 24.326-48.806 48.794-73.139 73.121-27.462 27.456-54.925 54.911-82.394 82.367-7.258 7.255-14.515 14.51-21.773 21.766-16.358 16.36-37.99 26.887-61.613 26.175-23.053-0.711-42.688-10.812-58.624-26.744-8.115-8.109-16.365-16.36-24.48-24.468-28.314-28.31-56.634-56.619-84.947-84.928-10.387-10.385-20.781-20.77-31.168-31.155l265.248-265.169c6.547-6.544 13.088-13.088 19.635-19.631 0.141-0.143 0.288-0.285 0.429-0.427l20.064-20.059c0.57 0.427 0.992 0.996 1.421 1.423 31.59 31.439 63.040 63.020 94.63 94.602 15.366 15.364 30.733 30.444 45.958 45.949 0.717 0.712 1.286 1.281 1.997 1.992 0.282 0.285 0.71 0.712 0.992 0.996 28.461 30.586 30.029 77.673 2.278 109.396zM915.68 453.979c-20.582-18.708-41.171-37.418-61.894-56.252-45.453-41.31-90.912-82.623-136.365-123.928-44.762-40.685-89.528-81.363-134.429-122.176-38.685-35.155-77.508-70.438-116.192-105.594-27.356-24.864-54.712-49.728-82.067-74.586-10.362-9.421-20.31-19.213-30.948-28.128-9.119-7.661-18.099-7.405-28.876-7.283-9.256 0-18.513 0-27.77 0-29.566 0-59.132 0-88.698 0.128-43.796 0-87.594 0-131.39 0.122-14.921 0-27.632 11.552-27.632 25.114 0 4.896 0 9.92 0 14.816 0 64.416-0.138 128.704-0.138 193.12 0 8.16-0.138 16.32 0 24.48 0.138 8.166 3.73 15.194 9.809 20.845 8.428 7.91 17.132 15.443 25.559 23.232 40.343 36.659 80.685 73.325 121.028 109.99 56.231 51.104 112.462 102.208 168.693 153.312 53.882 48.97 107.765 97.939 161.647 146.908 27.77 25.238 55.402 50.476 83.172 75.589 6.493-5.901 12.988-11.803 19.481-17.704 6.495-5.901 12.984-11.803 19.48-17.83 32.192-29.256 64.384-58.512 96.71-87.894 40.621-36.915 81.242-73.83 121.856-110.746l7.187-6.529c4.147-3.766 8.154-7.408 12.294-11.175 6.496-5.901 12.986-11.928 19.482-17.83z" />
<glyph unicode="&#xe903;" glyph-name="sort" horiz-adv-x="1182" d="M1069.269 785.92v-798.72c0-28.16-24.064-51.2-53.469-51.2s-53.461 23.040-53.461 51.2v798.72l-21.386-20.48c-21.386-20.48-53.461-20.48-74.847 0s-21.386 51.2 0 71.68l112.27 107.52c10.697 10.24 26.734 15.36 42.772 15.36 13.367 0 24.056-5.12 32.075-15.36l112.278-107.52c21.386-20.48 21.386-51.2 0-71.68s-53.469-20.48-74.847 0l-21.386 20.48zM0-12.8c0-28.16 24.058-51.2 53.463-51.2h695.022c29.405 0 53.464 23.040 53.464 51.2s-24.059 51.2-53.464 51.2h-695.022c-29.405 0-53.463-23.040-53.463-51.2zM0 294.4c0-28.16 24.058-51.2 53.463-51.2h588.096c29.405 0 53.463 23.040 53.463 51.2s-24.058 51.2-53.463 51.2h-588.096c-29.405 0-53.463-23.040-53.463-51.2zM0 601.6c0-28.16 24.058-51.2 53.463-51.2h481.169c29.405 0 53.463 23.040 53.463 51.2s-24.058 51.2-53.463 51.2h-481.169c-29.405 0-53.463-23.040-53.463-51.2zM0 908.8c0-28.16 24.058-51.2 53.463-51.2h320.78c29.405 0 53.463 23.040 53.463 51.2s-24.058 51.2-53.463 51.2h-320.78c-29.405 0-53.463-23.040-53.463-51.2z" />
<glyph unicode="&#xe904;" glyph-name="play" horiz-adv-x="945" d="M806.833 537.178c59.061-34.009 88.592-51.015 99.163-72.852 10.492-21.676 10.492-46.959 0-68.635-10.571-21.837-40.101-38.842-99.163-72.852l-582.812-335.599c-58.861-33.894-88.292-50.846-112.443-49.050-23.975 1.78-45.824 14.415-59.33 34.296-13.606 20.039-13.606 53.996-13.606 121.919v671.205c0 67.922 0 101.882 13.606 121.918 13.506 19.888 35.355 32.519 59.33 34.299 24.151 1.793 53.582-15.154 112.443-49.048l582.812-335.602z" />
<glyph unicode="&#xe905;" glyph-name="next" horiz-adv-x="1195" d="M1109.333 960c-51.2 0-85.333-34.133-85.333-76.8v-878.933c0-42.667 34.133-76.8 85.333-76.8s85.333 34.133 85.333 76.8v878.933c0 42.667-34.133 76.8-85.333 76.8zM247.467 866.133l401.067-290.133c68.267-51.2 102.4-76.8 110.933-110.933 0-8.533 0-17.067 0-34.133-17.067-34.133-51.2-59.733-119.467-102.4l-401.067-290.133c-93.867-68.267-145.067-102.4-179.2-93.867-8.533 0-25.6 8.533-34.133 17.067-25.6 17.067-25.6 76.8-25.6 196.267v580.267c0 119.467 0 179.2 34.133 204.8 8.533 8.533 17.067 8.533 34.133 17.067 34.133 8.533 85.333-25.6 179.2-93.867z" />
<glyph unicode="&#xe906;" glyph-name="prev" horiz-adv-x="1195" d="M85.333-64c42.667 0 76.8 34.133 76.8 76.8v870.4c0 42.667-34.133 76.8-76.8 76.8s-85.333-34.133-85.333-76.8v-878.933c0-34.133 42.667-68.267 85.333-68.267zM955.733 29.867l-401.067 298.667c-68.267 42.667-102.4 68.267-110.933 102.4 0 8.533 0 17.067 0 34.133 8.533 34.133 42.667 59.733 110.933 110.933l401.067 290.133c93.867 68.267 145.067 102.4 179.2 93.867 8.533 0 25.6-8.533 34.133-17.067 25.6-25.6 25.6-85.333 25.6-204.8v-588.8c0-119.467 0-179.2-34.133-204.8-8.533-8.533-17.067-17.067-34.133-17.067-34.133 0-76.8 34.133-170.667 102.4z" />
<glyph unicode="&#xe907;" glyph-name="all-series" horiz-adv-x="1403" d="M151.704 732.444h1024v-644.741h227.556v872.296h-1251.556v-227.556zM1061.926 618.667h-1061.926v-682.667h1061.926v682.667z" />
<glyph unicode="&#xe908;" glyph-name="count" d="M227.556 903.111h739.556v-739.556h-113.778v-56.889h113.778c31.42 0 56.889 25.469 56.889 56.889v739.556c0 31.419-25.469 56.889-56.889 56.889h-739.556c-31.419 0-56.889-25.47-56.889-56.889v-170.667h56.889v170.667zM796.444 732.444v-739.556h-739.556v739.556h739.556zM56.889 789.333c-31.419 0-56.889-25.47-56.889-56.889v-739.556c0-31.42 25.47-56.889 56.889-56.889h739.556c31.42 0 56.889 25.469 56.889 56.889v739.556c0 31.419-25.469 56.889-56.889 56.889h-739.556zM472.445 220.444h-68.667v188l0.667 30.889 1.111 33.778c-11.407-11.407-19.334-18.889-23.778-22.444l-37.333-30-33.111 41.333 104.666 83.334h56.445v-324.889z" />
<glyph unicode="&#xe909;" glyph-name="home" horiz-adv-x="904" d="M430.505 955.958c10.63 5.389 31.889 5.389 42.519 0l425.193-431.158c0-5.389 5.313-16.168 5.313-21.558v-538.949c0-16.167-10.632-26.943-26.576-26.943h-318.891c-15.945 0-26.575 10.776-26.575 26.943v215.582c0 43.116-37.204 80.842-79.723 80.842s-79.723-37.725-79.723-80.842v-215.582c0-16.167-10.63-26.943-26.575-26.943h-318.893c-15.945 0-26.574 10.776-26.574 26.943v538.949c0 5.39 5.315 16.169 5.315 21.558l425.19 431.158zM451.765 896.673l-398.616-404.21v-501.221h265.744v188.633c0 75.451 58.464 134.734 132.872 134.734s132.872-59.284 132.872-134.734v-188.633h265.741v501.221l-398.613 404.21z" />
<glyph unicode="&#xe90a;" glyph-name="calendar" horiz-adv-x="970" d="M862.316 798.316c29.766 0 53.895-24.13 53.895-53.895v-700.632c0-29.766-24.129-53.895-53.895-53.895h-754.526c-29.765 0-53.895 24.129-53.895 53.895v700.632c0 29.765 24.13 53.895 53.895 53.895h754.526zM107.789 852.211c-59.53 0-107.789-48.259-107.789-107.789v-700.632c0-59.532 48.259-107.789 107.789-107.789h754.526c59.532 0 107.789 48.257 107.789 107.789v700.632c0 59.531-48.257 107.789-107.789 107.789h-754.526zM754.526 582.737c0-29.765-24.129-53.895-53.895-53.895s-53.895 24.129-53.895 53.895c0 29.765 24.129 53.895 53.895 53.895s53.895-24.129 53.895-53.895zM323.368 367.158c0-29.765-24.129-53.895-53.895-53.895s-53.895 24.129-53.895 53.895c0 29.765 24.129 53.895 53.895 53.895s53.895-24.129 53.895-53.895zM538.947 367.158c0-29.765-24.129-53.895-53.895-53.895s-53.895 24.129-53.895 53.895c0 29.765 24.129 53.895 53.895 53.895s53.895-24.129 53.895-53.895zM323.368 151.579c0-29.765-24.129-53.895-53.895-53.895s-53.895 24.129-53.895 53.895c0 29.765 24.129 53.895 53.895 53.895s53.895-24.129 53.895-53.895zM538.947 151.579c0-29.765-24.129-53.895-53.895-53.895s-53.895 24.129-53.895 53.895c0 29.765 24.129 53.895 53.895 53.895s53.895-24.129 53.895-53.895zM754.526 367.158c0-29.765-24.129-53.895-53.895-53.895s-53.895 24.129-53.895 53.895c0 29.765 24.129 53.895 53.895 53.895s53.895-24.129 53.895-53.895zM296.421 960c14.883 0 26.947-12.065 26.947-26.947v-161.684c0-14.883-12.065-26.947-26.947-26.947s-26.947 12.065-26.947 26.947v161.684c0 14.883 12.065 26.947 26.947 26.947zM673.684 960c14.883 0 26.947-12.065 26.947-26.947v-161.684c0-14.883-12.065-26.947-26.947-26.947s-26.947 12.065-26.947 26.947v161.684c0 14.883 12.065 26.947 26.947 26.947z" />
<glyph unicode="&#xe90b;" glyph-name="info" d="M460.559 609.618c0 26.294 14.647 39.441 43.941 39.441s43.941-13.147 43.941-39.441c0-12.53-3.706-22.324-11.118-29.383-7.235-6.882-18.177-10.323-32.823-10.323-29.294 0-43.941 13.235-43.941 39.706zM544.735 237.176h-80.736v295.941h80.736v-295.941zM512-3.765c-249.503 0-451.765 202.264-451.765 451.765 0 249.503 202.262 451.765 451.765 451.765 249.501 0 451.765-202.262 451.765-451.765 0-249.501-202.264-451.765-451.765-451.765zM512-64c282.769 0 512 229.231 512 512s-229.231 512-512 512c-282.77 0-512-229.23-512-512s229.23-512 512-512z" />
<glyph unicode="&#xe90c;" glyph-name="close" d="M7.141 952.859c9.521 9.521 24.958 9.521 34.48 0l975.238-975.238c9.521-9.521 9.521-24.959 0-34.48s-24.959-9.521-34.48 0l-975.238 975.238c-9.521 9.521-9.521 24.959 0 34.48zM7.141-56.859c-9.521 9.521-9.521 24.959 0 34.48l975.238 975.238c9.521 9.521 24.959 9.521 34.48 0s9.521-24.959 0-34.48l-975.238-975.238c-9.521-9.521-24.959-9.521-34.48 0z" />
<glyph unicode="&#xe90d;" glyph-name="chevron-small-right" horiz-adv-x="614" d="M48.094 911.906c29.992 29.992 78.62 29.992 108.612 0l409.6-409.6c14.403-14.403 22.494-33.937 22.494-54.306s-8.092-39.903-22.494-54.306l-409.6-409.6c-29.992-29.992-78.619-29.992-108.612 0s-29.992 78.62 0 108.612l355.294 355.294-355.294 355.294c-29.992 29.992-29.992 78.619 0 108.612z" />
<glyph unicode="&#xe90e;" glyph-name="chevron-right" horiz-adv-x="740" d="M59.419 938.983c19.813 24.385 55.642 28.091 80.026 8.279l560.135-455.111c13.295-10.803 21.015-27.021 21.015-44.152s-7.72-33.35-21.015-44.153l-560.135-455.108c-24.384-19.814-60.213-16.111-80.026 8.277-19.812 24.383-16.106 60.211 8.279 80.026l505.793 410.958-505.793 410.959c-24.385 19.813-28.091 55.642-8.279 80.026z" />
<glyph unicode="&#xe90f;" glyph-name="chevron-left" horiz-adv-x="740" d="M680.135 938.983c-19.809 24.385-55.637 28.091-80.026 8.279l-560.136-455.111c-13.296-10.803-21.015-27.021-21.015-44.152s7.72-33.35 21.015-44.153l560.136-455.108c24.388-19.814 60.217-16.111 80.026 8.277 19.814 24.383 16.105 60.211-8.277 80.026l-505.795 410.958 505.795 410.959c24.383 19.813 28.092 55.642 8.277 80.026z" />
<glyph unicode="&#xe910;" glyph-name="chevron-down" horiz-adv-x="1463" d="M49.1 923.049c60.384 53.675 152.847 48.236 206.522-12.148l475.807-535.283 475.807 535.283c53.675 60.384 146.138 65.823 206.522 12.148 60.391-53.675 65.818-146.137 12.149-206.523l-585.143-658.286c-27.761-31.231-67.55-49.098-109.335-49.098s-81.575 17.867-109.335 49.098l-585.143 658.286c-53.675 60.385-48.236 152.848 12.148 206.523z" />
</font></defs></svg>